{
  "users": [
    {
      "name": "guest",
      "password_hash": "83dD90IdL03Mt/x/S/r4yacjAhb6Ebk7mkvA3Zj6wXBQ4Wj7",
      "hashing_algorithm": "rabbit_password_hashing_sha256",
      "tags": [
        "administrator"
      ],
      "limits": {}
    },
    {
      "name": "station",
      "password_hash": "Pf0JR5hiMD7J9cvyWlcT5CTOI7A2tIpdvUAWkRaZXV8t6JSl",
      "hashing_algorithm": "rabbit_password_hashing_sha256",
      "tags": [
        "management"
      ],
      "limits": {}
    }
  ],
  "vhosts": [
    {
      "name": "/"
    },
    {
      "name": "weather_station"
    }
  ],
  "permissions": [
    {
      "user": "station",
      "vhost": "weather_station",
      "configure": ".*",
      "write": ".*",
      "read": ".*"
    },
    {
      "user": "guest",
      "vhost": "weather_station",
      "configure": ".*",
      "write": ".*",
      "read": ".*"
    },
    {
      "user": "guest",
      "vhost": "/",
      "configure": ".*",
      "write": ".*",
      "read": ".*"
    }
  ],
  "policies": [],
  "queues": [],
  "exchanges": [],
  "bindings": []
}